<?xml version="1.0" standalone="no"?>
<!DOCTYPE svg PUBLIC "-//W3C//DTD SVG 1.1//EN" "http://www.w3.org/Graphics/SVG/1.1/DTD/svg11.dtd">
<svg xmlns="http://www.w3.org/2000/svg">
<metadata>Copyright (C) 2014 by original authors @ fontello.com</metadata>
<defs>
<font id="fontello" horiz-adv-x="1000" >
<font-face font-family="fontello" font-weight="400" font-stretch="normal" units-per-em="1000" ascent="850" descent="-150" />
<missing-glyph horiz-adv-x="1000" />
<glyph glyph-name="mail" unicode="&#xe80f;" d="m929 11v428q-18-20-39-37q-149-114-238-188q-28-24-46-38t-48-27t-57-13h-2q-26 0-57 13t-48 27t-46 38q-88 74-238 188q-21 17-39 37v-428q0-8 6-13t12-5h822q7 0 12 5t6 13z m0 586v14t-1 7t-1 7t-3 5t-5 4t-8 2h-822q-7 0-12-6t-6-12q0-94 82-159q108-85 224-177q4-2 20-16t25-21t25-18t28-15t24-5h2q11 0 24 5t28 15t25 18t25 21t20 16q116 92 224 177q30 24 56 65t26 73z m71 21v-607q0-37-26-63t-63-27h-822q-36 0-63 27t-26 63v607q0 37 26 63t63 26h822q37 0 63-26t26-63z" horiz-adv-x="1000" />
<glyph glyph-name="skype-4" unicode="&#xe81e;" d="m1000 122q0-113-81-193t-196-80q-69 0-130 32q-46-8-88-8q-196 0-336 138t-141 333q0 42 10 94q-38 64-38 138q0 113 82 193t195 80q81 0 147-42q38 7 81 7q129 0 239-62t174-171t64-237q0-56-11-101q29-58 29-121z m-217 102q0 50-22 87t-57 56t-79 34t-86 23t-78 18t-58 25t-22 39q0 34 37 50t75 15q40 0 67-12t38-30t22-35t25-30t40-13q28 0 49 19t20 46t-15 54q-30 55-96 80t-141 25q-46 0-89-9t-85-28t-66-57t-25-87q0-66 41-106t99-57t116-29t99-33t40-59q0-42-42-62t-90-21q-45 0-74 15t-41 36t-23 43t-26 36t-42 15q-28 0-49-17t-21-45q0-42 31-85q72-104 249-104q50 0 97 11t89 34t68 63t25 95z" horiz-adv-x="1000" />
<glyph glyph-name="picture" unicode="&#xe830;" d="m357 529q0-45-31-76t-76-32t-76 32t-31 76t31 75t76 32t76-32t31-75z m572-215v-250h-786v107l178 179l90-89l285 285z m53 393h-893q-7 0-12-5t-6-13v-678q0-8 6-13t12-5h893q7 0 13 5t5 13v678q0 7-5 13t-13 5z m89-18v-678q0-37-26-63t-63-27h-893q-36 0-63 27t-26 63v678q0 37 26 63t63 27h893q37 0 63-27t26-63z" horiz-adv-x="1071.4" />
<glyph glyph-name="home" unicode="&#xe82d;" d="m786 296v-267q0-15-11-26t-25-10h-214v214h-143v-214h-214q-15 0-25 10t-11 26v267q0 1 0 2t0 2l321 264l321-264q1-1 1-4z m124 39l-34-41q-5-5-12-6h-2q-7 0-12 3l-386 322l-386-322q-7-4-13-4q-7 2-12 7l-35 41q-4 5-3 13t6 12l401 334q18 15 42 15t43-15l136-114v109q0 8 5 13t13 5h107q8 0 13-5t5-13v-227l122-102q5-5 6-12t-4-13z" horiz-adv-x="928.6" />
<glyph glyph-name="link" unicode="&#xe844;" d="m812 171q0 23-15 38l-116 116q-16 16-38 16q-24 0-40-18q1-1 10-10t12-12t9-11t7-14t2-15q0-23-16-38t-38-16q-8 0-15 2t-14 7t-11 9t-12 12t-10 10q-19-17-19-40q0-23 16-38l115-116q15-15 38-15q22 0 38 15l82 81q15 16 15 37z m-392 394q0 22-15 38l-115 115q-16 16-38 16q-22 0-38-15l-82-82q-16-15-16-37q0-22 16-38l116-116q15-15 38-15q23 0 40 17q-2 2-11 11t-12 12t-8 10t-7 14t-2 16q0 22 15 38t38 15q9 0 16-2t14-7t10-8t12-12t11-11q18 17 18 41z m500-394q0-67-48-113l-82-81q-46-47-113-47q-68 0-114 48l-115 115q-46 47-46 114q0 68 49 116l-49 49q-48-49-116-49q-67 0-114 47l-116 116q-47 47-47 114t47 113l82 82q47 46 114 46q67 0 114-47l114-116q47-46 47-113q0-69-49-117l49-49q48 49 116 49q67 0 114-47l116-116q47-47 47-114z" horiz-adv-x="928.6" />
<glyph glyph-name="unlink" unicode="&#xe845;" d="m245 141l-143-143q-5-5-13-5q-6 0-13 5q-5 5-5 13t5 13l143 142q6 5 13 5t13-5q5-5 5-12t-5-13z m94-23v-179q0-8-5-13t-13-5t-12 5t-5 13v179q0 8 5 13t12 5t13-5t5-13z m-125 125q0-8-5-13t-13-5h-178q-8 0-13 5t-5 13t5 13t13 5h178q8 0 13-5t5-13z m706-72q0-67-48-113l-82-81q-46-47-113-47q-68 0-114 48l-186 187q-12 11-24 31l134 10l152-153q15-15 38-15t38 15l82 81q15 16 15 37q0 23-15 38l-153 154l10 133q20-12 31-23l188-188q47-48 47-114z m-345 404l-133-10l-152 153q-16 16-38 16q-22 0-38-15l-82-82q-16-15-16-37q0-22 16-38l153-153l-10-134q-20 12-32 24l-187 187q-47 48-47 114q0 67 47 113l82 82q47 46 114 46q67 0 114-47l186-187q12-12 23-32z m354-46q0-8-5-13t-13-5h-179q-8 0-13 5t-5 13t5 12t13 5h179q8 0 13-5t5-12z m-304 303v-178q0-8-5-13t-13-5t-13 5t-5 13v178q0 8 5 13t13 5t13-5t5-13z m227-84l-143-143q-6-5-13-5t-12 5q-5 6-5 13t5 13l142 142q6 5 13 5t13-5q5-5 5-12t-5-13z" horiz-adv-x="928.6" />
<glyph glyph-name="code" unicode="&#xe848;" d="m344 69l-28-28q-5-5-12-5t-13 5l-260 260q-6 6-6 13t6 13l260 260q5 6 13 6t12-6l28-28q6-5 6-13t-6-12l-219-220l219-219q6-6 6-13t-6-13z m330 596l-208-721q-2-7-9-11t-13-1l-34 9q-8 3-11 9t-2 14l208 720q3 8 9 11t13 2l35-10q7-2 11-9t1-13z m367-364l-260-260q-6-5-13-5t-13 5l-28 28q-5 6-5 13t5 13l219 219l-219 220q-5 5-5 12t5 13l28 28q6 6 13 6t13-6l260-260q5-5 5-13t-5-13z" horiz-adv-x="1071.4" />
<glyph glyph-name="location" unicode="&#xe80e;" d="m429 493q0 59-42 101t-101 42t-101-42t-42-101t42-101t101-42t101 42t42 101z m142 0q0-61-18-100l-203-432q-9-18-27-29t-37-11t-38 11t-26 29l-204 432q-18 39-18 100q0 118 84 202t202 84t202-84t83-202z" horiz-adv-x="571.4" />
<glyph glyph-name="direction" unicode="&#xe802;" d="m782 655l-357-714q-10-20-32-20q-3 0-8 1q-13 3-20 13t-8 22v322h-321q-13 0-22 7t-13 20t2 23t17 17l714 357q7 4 16 4q15 0 25-10q8-8 10-20t-3-22z" horiz-adv-x="785.7" />
<glyph glyph-name="phone" unicode="&#xe817;" d="m786 158q0-15-6-39t-12-38q-11-28-68-60q-52-28-103-28q-16 0-30 2t-32 7t-26 8t-31 11t-28 10q-54 20-97 47q-72 44-148 120t-120 148q-27 43-46 97q-2 5-10 28t-12 31t-8 26t-7 32t-2 29q0 52 29 104q31 56 59 68q14 6 38 12t39 6q8 0 12-2q10-3 30-43q6-10 16-30t20-35t17-30q2-2 10-14t12-20t4-16q0-11-16-28t-35-30t-34-30t-16-25q0-5 3-13t4-11t8-14t7-10q42-77 97-132t131-97q1 0 10-6t14-8t11-5t13-2q10 0 25 15t30 35t31 35t28 16q7 0 15-4t20-12t14-10q14-8 30-17t35-20t31-17q39-19 42-29q2-4 2-12z" horiz-adv-x="785.7" />
<glyph glyph-name="cog-alt" unicode="&#xe835;" d="m500 350q0 59-42 101t-101 42t-101-42t-42-101t42-101t101-42t101 42t42 101z m429-286q0 29-22 51t-50 21t-50-21t-21-51q0-29 21-50t50-21t51 21t21 50z m0 572q0 29-22 50t-50 21t-50-21t-21-50q0-30 21-51t50-21t51 21t21 51z m-215-235v-103q0-6-4-11t-9-6l-86-14q-6-19-18-42q19-27 50-64q4-6 4-11q0-7-4-11q-13-17-46-50t-44-33q-6 0-11 4l-64 50q-21-11-43-17q-6-60-13-87q-4-13-17-13h-104q-6 0-11 4t-5 10l-13 85q-19 6-42 18l-66-50q-4-4-11-4q-6 0-12 4q-80 75-80 90q0 5 4 10q5 8 23 30t26 34q-13 24-20 46l-85 13q-5 1-9 5t-4 11v103q0 6 4 11t9 6l86 14q7 19 18 42q-19 27-50 64q-4 6-4 11q0 7 4 11q12 17 46 50t44 33q6 0 12-4l64-50q19 10 43 18q6 60 13 86q3 13 16 13h104q6 0 11-4t6-10l13-85q19-6 41-17l66 49q5 4 11 4q7 0 12-4q81-75 81-90q0-5-4-10q-7-9-24-30t-25-34q13-27 19-46l85-12q5-2 9-6t4-11z m357-298v-78q0-9-83-17q-6-15-16-29q28-63 28-77q0-2-2-4q-68-40-69-40q-5 0-26 27t-29 37q-11-1-17-1t-17 1q-7-11-29-37t-25-27q-1 0-69 40q-3 2-3 4q0 14 29 77q-10 14-17 29q-83 8-83 17v78q0 9 83 18q7 16 17 29q-29 63-29 77q0 2 3 4q2 1 19 11t33 19t17 9q4 0 25-26t29-38q12 1 17 1t17-1q28 40 51 63l4 1q2 0 69-39q2-2 2-4q0-14-28-77q9-13 16-29q83-9 83-18z m0 572v-78q0-9-83-18q-6-15-16-29q28-63 28-77q0-2-2-4q-68-39-69-39q-5 0-26 26t-29 38q-11-1-17-1t-17 1q-7-12-29-38t-25-26q-1 0-69 39q-3 2-3 4q0 14 29 77q-10 14-17 29q-83 9-83 18v78q0 9 83 17q7 16 17 29q-29 63-29 77q0 2 3 4q2 1 19 11t33 19t17 9q4 0 25-26t29-38q12 2 17 2t17-2q28 40 51 63l4 1q2 0 69-39q2-2 2-4q0-14-28-77q9-13 16-29q83-8 83-17z" horiz-adv-x="1071.4" />
<glyph glyph-name="block" unicode="&#xe831;" d="m732 352q0 90-48 164l-421-420q76-50 166-50q62 0 118 25t96 65t65 97t24 119z m-557-167l421 421q-75 50-167 50q-83 0-153-40t-110-112t-41-152q0-91 50-167z m682 167q0-88-34-168t-91-137t-137-92t-166-34t-167 34t-137 92t-91 137t-34 168t34 167t91 137t137 91t167 34t166-34t137-91t91-137t34-167z" horiz-adv-x="857.1" />
<glyph glyph-name="cw" unicode="&#xe843;" d="m857 707v-250q0-14-10-25t-26-11h-250q-23 0-32 23q-10 22 7 38l77 77q-82 77-194 77q-58 0-111-23t-91-61t-62-91t-22-111t22-111t62-91t91-61t111-23q66 0 125 29t100 82q4 6 13 7q8 0 14-5l76-77q5-4 6-11t-5-13q-60-74-147-114t-182-41q-87 0-167 34t-136 92t-92 137t-34 166t34 166t92 137t136 92t167 34q82 0 158-31t137-88l72 72q16 18 39 8q22-9 22-33z" horiz-adv-x="857.1" />
<glyph glyph-name="ccw" unicode="&#xe842;" d="m857 350q0-87-34-166t-91-137t-137-92t-166-34q-96 0-183 41t-147 114q-4 6-4 13t5 11l76 77q6 5 14 5q9-1 13-7q41-53 100-82t126-29q58 0 110 23t92 61t61 91t22 111t-22 111t-61 91t-92 61t-110 23q-55 0-105-20t-90-57l77-77q17-16 8-38q-10-23-33-23h-250q-15 0-25 11t-11 25v250q0 24 22 33q22 10 39-8l72-72q60 57 137 88t159 31q87 0 166-34t137-92t91-137t34-166z" horiz-adv-x="857.1" />
<glyph glyph-name="strike" unicode="&#xe83c;" d="m982 350q8 0 13-5t5-13v-36q0-7-5-12t-13-5h-964q-8 0-13 5t-5 12v36q0 8 5 13t13 5h964z m-712 36q-16 19-29 44q-27 54-27 105q0 101 75 173q74 71 219 71q28 0 94-11q36-7 98-27q6-21 12-66q8-68 8-102q0-10-3-25l-7-2l-46 4l-8 1q-28 83-58 114q-49 51-117 51q-64 0-102-33q-37-32-37-81q0-41 37-79t156-72q38-11 96-36q33-16 53-29h-414z m282-143h230q4-22 4-51q0-62-23-119q-13-30-40-58q-20-19-61-45q-44-27-85-37q-45-12-113-12q-64 0-109 13l-78 23q-32 8-40 15q-5 5-5 12v8q0 60-1 87q0 17 0 38l1 20v25l57 1q8-19 17-40t12-31t7-15q20-32 45-52q24-20 59-32q33-12 73-12q36 0 78 15q43 14 68 48q26 34 26 72q0 47-45 87q-19 16-77 40z" horiz-adv-x="1000" />
<glyph glyph-name="underline" unicode="&#xe83b;" d="m27 726q-21 1-25 2l-2 49q7 0 22 0q34 0 63-2q74-4 92-4q48 0 94 2q65 2 82 3q31 0 48 1l-1-8l1-36v-5q-33-5-69-5q-33 0-44-14q-7-7-7-73q0-8 0-18t0-15l1-128l8-156q3-69 28-112q20-33 54-52q49-26 98-26q58 0 107 16q31 10 55 28q27 20 37 36q20 31 29 63q12 41 12 128q0 44-2 72t-6 68t-8 89l-2 33q-3 37-13 49q-19 20-43 19l-56-1l-8 2l1 48h47l114-6q43-2 110 6l10-2q3-21 3-28q0-4-2-17q-25-7-47-8q-41-6-44-9q-8-9-8-23q0-4 0-15t1-17q5-11 13-221q3-109-9-170q-8-42-23-68q-21-36-62-69q-42-32-102-49q-61-19-142-19q-93 0-159 26q-66 26-99 68q-34 42-47 109q-9 44-9 132v186q0 105-9 119q-14 20-82 21z m830-787v36q0 8-5 13t-13 5h-821q-8 0-13-5t-5-13v-36q0-8 5-13t13-5h821q8 0 13 5t5 13z" horiz-adv-x="857.1" />
<glyph glyph-name="floppy" unicode="&#xe838;" d="m214-7h429v214h-429v-214z m500 0h72v500q0 8-6 21t-11 20l-157 156q-5 6-19 12t-22 5v-232q0-22-15-38t-38-16h-322q-22 0-37 16t-16 38v232h-72v-714h72v232q0 22 16 38t37 16h465q22 0 38-16t15-38v-232z m-214 518v178q0 8-5 13t-13 5h-107q-7 0-13-5t-5-13v-178q0-8 5-13t13-5h107q7 0 13 5t5 13z m357-18v-518q0-22-15-38t-38-16h-750q-23 0-38 16t-16 38v750q0 22 16 38t38 16h517q23 0 50-12t42-26l156-157q16-15 27-42t11-49z" horiz-adv-x="857.1" />
<glyph glyph-name="puzzle" unicode="&#xe82e;" d="m929 237q0-45-25-75t-69-30q-23 0-43 10t-33 21t-32 21t-39 10q-62 0-62-69q0-22 9-65t8-64v-3q-12 0-18 0q-19-2-54-7t-65-7t-55-3q-34 0-57 15t-23 47q0 20 9 39t22 32t21 33t9 43q0 44-30 69t-75 25q-47 0-80-26t-33-71q0-24 9-46t18-36t19-30t8-28q0-25-25-50q-21-19-66-19q-53 0-136 13q-5 1-16 2t-15 3l-7 1q-1 0-2 0q-1 0-1 1v571q1 0 10-2t19-2t12-2q83-14 136-14q45 0 66 20q25 24 25 49q0 13-8 29t-19 29t-18 36t-9 46q0 46 33 72t81 25q44 0 74-25t30-69q0-23-9-43t-21-33t-22-31t-9-40q0-32 23-47t57-14q36 0 101 8t91 9v-1q-1-1-2-9t-3-19t-2-12q-13-84-13-137q0-45 19-65q25-26 50-26q12 0 28 8t30 19t36 19t46 8q46 0 71-33t26-80z" horiz-adv-x="928.6" />
<glyph glyph-name="skype-6" unicode="&#xe820;" d="m655 257q0 28-11 51t-27 38t-41 27t-46 19t-49 13l-58 14q-17 4-25 6t-19 6t-17 9t-9 12t-4 16q0 43 80 43q24 0 43-6t30-16t21-19t23-16t27-7q26 0 42 18t16 43q0 31-32 55t-79 38t-101 13q-38 0-74-9t-67-26t-49-48t-19-72q0-34 10-60t32-42t44-27t58-18l81-20q51-12 63-20q18-11 18-34q0-21-23-36t-58-14q-29 0-51 9t-37 22t-25 25t-26 21t-30 9q-28 0-42-17t-14-41q0-52 68-88t162-37q41 0 78 10t69 30t49 52t19 74z m202-121q0-89-63-152t-151-63q-73 0-131 45q-43-9-83-9q-80 0-153 31t-126 84t-83 125t-31 153q0 41 9 84q-45 58-45 130q0 89 63 152t151 63q73 0 131-45q43 9 84 9q79 0 152-31t126-84t83-125t31-153q0-41-9-84q45-58 45-130z" horiz-adv-x="857.1" />
<glyph glyph-name="mail-1" unicode="&#xe810;" d="m30 586q-32 18-28 40q2 14 26 14l846 0q38 0 20-32q-8-14-24-22q-14-6-192-102t-182-98q-16-10-46-10q-28 0-46 10q-4 2-182 98t-192 102z m850-100q20 10 20-10l0-368q0-16-17-32t-33-16l-800 0q-16 0-33 16t-17 32l0 368q0 20 20 10l384-200q18-10 46-10t46 10z" horiz-adv-x="900" />
<glyph glyph-name="left-dir" unicode="&#xe847;" d="m400 580l0-460l-400 230z" horiz-adv-x="400" />
<glyph glyph-name="skype-5" unicode="&#xe81f;" d="m894 250q26-58 26-118q0-108-75-185t-179-77q-62 0-120 32q-52-8-80-8q-182 0-311 132t-129 320q0 44 10 90q-36 60-36 134q0 108 74 184t180 76q74 0 136-40q32 8 76 8q182 0 310-132t128-320q0-46-10-96z m-204-120q30 46 30 100q0 44-16 80q-16 30-50 54q-36 22-76 36q-68 20-96 26q-14 2-35 7t-27 7q-24 8-34 14q-16 8-26 22q-10 10-10 26q0 24 28 42q26 20 76 20t74-18q26-22 38-50q16-26 26-36q16-12 38-12q26 0 46 20q18 18 18 44q0 20-14 52q-16 24-42 48q-28 22-74 38q-48 14-102 14q-72 0-128-22q-56-20-86-60t-30-92t28-90q34-40 76-56q48-22 116-36q12-2 29-7t30-8t21-5q28-10 46-28q18-14 18-42q0-34-32-56q-36-24-90-24q-40 0-64 12q-26 14-36 28q-24 44-26 46q-8 24-24 40q-20 14-40 14q-28 0-46-18t-18-42q0-38 28-82q26-40 72-66q64-34 158-34q78 0 138 24q60 28 88 70z" horiz-adv-x="920" />
<glyph glyph-name="mail-2" unicode="&#xe811;" d="m834 688q44 0 74-30t30-74l0-468q0-43-30-74t-74-30l-730 0q-44 0-74 30t-30 74l0 468q0 44 30 74t74 30l730 0z m-421-454l-82 72l-190-190l655 0l-190 190l-81-72q-24-20-56-20t-56 20z m-309-82l187 189l-187 163l0-352z m542 189l188-188l0 351z m188 243l-730 0l0-11l342-300q9-7 23-7t22 7l343 300l0 11z" horiz-adv-x="938" />
<glyph glyph-name="phone-1" unicode="&#xe818;" d="m566 555l-22 23q-23 22-23 55t23 55l82 84q23 22 55 22t55-22l24-24z m-350-305l23-22l-193-194l-23 23q-23 22-23 56q0 32 23 55l82 82q23 23 56 23t55-23z m614 428q10-10 23-28t26-70t6-113t-60-154t-151-193q-214-213-399-213q-101 0-159 57l-18 18l193 193l34-33q18-18 36 0l292 291q7 7 7 17q0 12-7 19l-34 34l192 194z" horiz-adv-x="888" />
<glyph glyph-name="move" unicode="&#xe832;" d="m788 543l192-193l-192-192q-17-17-37-17q-21 0-37 17q-15 15-15 36t15 36l67 68l-238 0l0-239l67 67q15 15 37 15t37-15t15-37t-15-36l-194-193l-192 193q-15 15-15 36t15 37t36 15t37-15l68-67l0 239l-239 0l66-68q15-15 15-36t-15-36q-16-17-36-17q-21 0-37 17l-193 192l193 193q15 15 36 15t37-15t15-37t-15-36l-66-67l239 0l0 238l-68-67q-15-15-37-15t-36 15t-15 37t15 37l192 192l194-192q15-15 15-37t-15-37t-38-15q-21 0-36 15l-67 67l0-238l238 0l-67 67q-15 15-15 36t15 37t37 15t37-15z" horiz-adv-x="980" />
<glyph glyph-name="skype-outline" unicode="&#xe821;" d="m633-31q82 0 141 62t60 146q0 45-21 94q7 39 7 76q0 149-101 254q-100 104-245 104q-31 0-60-7q-50 33-109 33q-84 0-142-61t-59-145q0-59 29-107q-8-37-8-71q0-147 103-254q101-105 246-105q17 0 64 6q42-25 95-25z m-365 277q0 20 14 34t36 13q36 0 51-43q5-5 21-37q23-31 79-31q39 0 67 16t29 48q0 14-4 24t-18 16t-19 10t-26 9t-24 6q-20 6-23 6q-52 11-92 29q-34 14-58 43t-23 72q0 69 55 103t137 34q88 0 140-41q44-41 44-79q0-20-15-35t-35-16q-14 0-24 6t-14 12t-13 21q-23 54-89 54q-33 0-58-14t-25-35q0-44 105-61q10-2 77-20q75-27 100-72q12-26 12-63q0-75-57-115t-145-39q-130 0-183 80q-22 35-22 65z m37 589q68 0 126-28q28 3 43 3q187 0 320-137q131-137 131-326q0-20-5-65q18-52 18-105q0-127-89-219q-90-92-216-92q-62 0-113 21q-19-2-46-2q-188 0-321 136q-133 136-133 326q0 26 4 55q-24 55-24 123q0 127 88 217q90 93 217 93z" horiz-adv-x="938" />
<glyph glyph-name="skype" unicode="&#xe81a;" d="m920 281q18-52 18-103q0-129-89-221q-90-92-216-92q-58 0-113 22q-19-2-46-2q-188 0-321 135q-133 136-133 326q0 29 4 57q-24 55-24 122q0 128 88 218q90 92 217 92q68 0 126-27q14 1 43 1q187 0 320-136q131-138 131-327q0-20-5-65z m-447-180q88 0 145 40t57 114q0 69-52 106q-32 19-60 29q-7 1-104 26q-53 13-69 34q-9 9-9 20q0 23 26 36t57 14q66 0 89-54q10-16 13-21t13-11t25-6q20 0 35 15t15 36q0 40-44 79q-52 41-140 41q-82 0-137-35t-55-103q0-42 23-72t58-44q40-17 92-29q30-6 64-15q50-18 50-56q0-30-29-46t-67-16q-56 0-79 31q-16 31-21 36q-14 43-51 43q-22 0-36-14t-14-34q0-35 23-67t55-49q53-28 127-28z" horiz-adv-x="938" />
<glyph glyph-name="mail-3" unicode="&#xe812;" d="m467 366l-449 210l0 109l893 0l0-109z m0-123l444 210l0-437l-893 0l0 438z" horiz-adv-x="928" />
<glyph glyph-name="left" unicode="&#xe846;" d="m464-97l-446 448l446 446l159-158l-177-177l465 0l0-223l-465 0l177-176z" horiz-adv-x="928" />
<glyph glyph-name="github-circled-alt2" unicode="&#xe82a;" d="m0 350q0-130 63-235q63-109 171-171t235-63q127 0 235 63q109 63 171 171t62 235q0 129-62 235q-63 109-171 171t-235 62q-130 0-235-63q-109-63-171-171t-63-234z m78 0q0 78 31 151t84 125q53 53 125 84t151 30t150-30t126-84q53-53 83-126t31-150q0-84-34-160t-97-132t-142-80v137q0 52-42 80q103 10 150 53t48 136q0 72-45 121q9 27 9 51q0 36-16 66q-33 0-59-10t-63-37q-46 10-94 10q-55 0-103-11q-37 26-63 37t-61 11q-16-30-16-66q0-25 9-51q-45-48-45-121q0-93 48-136t151-52q-27-19-38-54q-24-9-50-9q-19 0-34 9q-4 3-8 5t-7 7t-7 6t-6 8t-5 6t-6 8t-5 7q-23 30-55 30q-17 0-17-7q0-3 9-10q15-13 16-14q12-10 13-12q14-18 22-39q27-61 93-61q11 0 42 5v-103q-80 25-142 80t-96 132t-35 160z" horiz-adv-x="937.5" />
<glyph glyph-name="android" unicode="&#xe800;" d="m0 201l0 269q0 26 19 45t44 18q26 0 45-18t18-45l0-269q0-26-18-44t-45-19t-44 19t-19 44z m173-100l0 418l574 0l0-418q0-26-18-44t-45-19l-448 0q-26 0-44 19t-19 44z m0 465l574 0q0 115-85 189t-202 74t-202-74t-85-189z m101 316q0 8 7 8q3 0 7-2l49-89l-15-8q-48 88-48 91z m15-807q0 27 19 45t47 18q25 0 44-19t19-44l0-202q0-28-19-46t-47-17q-26 0-44 18t-19 45l0 202z m5 620q0 16 12 28t28 11t28-11t11-28q0-17-11-28t-29-12q-16 0-27 12t-12 28z m208-620q0 27 20 45t46 18q26 0 45-18t18-45l0-202q0-28-19-46t-47-17q-26 0-44 18t-19 45l0 202z m45 620q0 16 12 28t28 11t28-11t11-28q0-17-12-28t-28-12t-27 12t-12 28z m36 104q2 3 14 29t24 44t18 18t7-9l0-2l-48-89z m211-598l0 268q0 26 19 45t44 19t45-19t18-45l0-268q0-26-18-44t-45-19t-45 19t-18 44z" horiz-adv-x="920" />
<glyph glyph-name="skype-2" unicode="&#xe81b;" d="m0 577q0 113 80 193t193 80q78 0 145-42q36 7 80 7q195 0 333-138t138-332q0-49-11-101q28-59 28-121q0-113-80-193t-193-80q-68 0-129 32q-45-8-86-8q-194 0-332 138t-138 333q0 47 9 94q-37 65-37 138z m221-366q0-41 30-85q71-104 246-104q50 0 97 11t87 34t66 64t25 94q0 58-29 98t-74 58t-95 33t-96 23t-73 26t-30 44q0 33 37 49t74 16q40 0 66-12t38-30t21-35t25-30t39-13q27 0 48 19t20 46t-15 54q-30 55-95 80t-138 25q-46 0-89-9t-83-29t-64-56t-25-87q0-66 40-106t97-57t115-29t97-33t40-59q0-29-23-49t-50-27t-57-7q-38 0-64 11t-39 27t-22 35t-18 35t-23 27t-37 10q-28 0-48-17t-21-45z" horiz-adv-x="986" />
<glyph glyph-name="email" unicode="&#xe803;" d="m0 62l0 576q0 1 3 19l339-290l-338-325q-4 14-4 20z m45 635q7 3 17 3l913 0q9 0 18-3l-340-291l-45-36l-89-73l-89 73l-45 36z m1-694l341 327l132-107l132 107l341-327q-8-3-17-3l-913 0q-8 0-16 3z m650 364l338 290q3-9 3-19l0-576q0-9-3-20z" horiz-adv-x="1037" />
<glyph glyph-name="facebook" unicode="&#xe804;" d="m0 313l0 191l154 0l0 96q0 104 68 177t163 73l153 0l0-191l-153 0q-15 0-27-16t-12-41l0-98l192 0l0-191l-192 0l0-463l-192 0l0 463l-154 0z" horiz-adv-x="538" />
<glyph glyph-name="gmail" unicode="&#xe807;" d="m0-97l0 897l185 0l9-8l825 0l9 8l174 0l0-900l-171 0l0 7l-855 0l0-4l-176 0z m176 132l0-80l855 0l0 74l-345 259l-79-65l-86 70z m0 60l307 229l-307 252l0-481z m83 641l348-298l347 298l-695 0z m465-417l307-230l0 484z" horiz-adv-x="1202" />
<glyph glyph-name="facebook-rect" unicode="&#xe805;" d="m183 850c-102 0-183-81-183-183l0-634c0-102 81-183 183-183l344 0l0 391l-104 0l0 141l104 0l0 120c0 94 61 181 201 181c57 0 100-5 100-5l-4-132s-43 1-90 1c-50 0-58-24-58-62l0-103l152 0l-6-141l-146 0l0-391l141 0c102 0 183 81 183 183l0 634c0 102-81 183-183 183l-634 0z" horiz-adv-x="1000" />
<glyph glyph-name="mail-alt" unicode="&#xe815;" d="m1000 454v-443q0-37-26-63t-63-27h-822q-36 0-63 27t-26 63v443q25-28 56-49q202-137 278-192q32-24 51-37t53-27t61-13h2q28 0 61 13t53 27t51 37q95 68 278 192q32 22 56 49z m0 164q0-44-27-84t-68-69q-210-146-262-181q-5-4-23-17t-30-22t-29-18t-33-15t-27-5h-2q-12 0-27 5t-33 15t-29 18t-30 22t-23 17q-51 35-147 101t-114 80q-35 23-65 64t-31 77q0 43 23 72t66 29h822q36 0 62-26t27-63z" horiz-adv-x="1000" />
<glyph glyph-name="twitter-bird" unicode="&#xe825;" d="m1231 732q-51-77-126-131q1-14 1-32q0-102-30-203q-29-102-90-195q-61-92-145-164q-84-72-201-114q-118-43-253-43q-210 0-387 113q31-3 60-3q176 0 314 108q-82 2-147 51q-64 49-89 125q24-5 48-5q34 0 66 9q-87 17-145 87q-57 69-57 160l0 4q53-30 114-32q-52 34-82 90q-30 55-30 120q0 68 34 127q95-117 230-186q135-70 290-78q-6 28-6 58q0 104 74 178q74 74 178 74q110 0 185-80q85 17 160 62q-29-91-111-140q76 9 145 39z" horiz-adv-x="1231" />
<glyph glyph-name="vimeo" unicode="&#xe826;" d="m1158 619q-8-169-236-463q-236-306-400-306q-101 0-171 187l-94 343q-52 187-112 187q-13 0-90-55l-55 70q86 76 169 151q114 99 171 104q135 13 166-185q34-212 47-264q39-177 86-177q36 0 109 114q73 115 78 174q10 99-78 99q-42 0-86-18q86 278 327 270q180-5 169-231z" horiz-adv-x="1158.8" />
<glyph glyph-name="vimeo-rect" unicode="&#xe827;" d="m193 850c-107 0-193-86-193-193l0-614c0-107 86-193 193-193l614 0c107 0 193 86 193 193l0 614c0 107-86 193-193 193l-614 0z m517-197c3 0 6 0 9 0c74-2 108-50 104-143c-3-69-52-164-146-285c-97-126-179-189-247-189c-41 0-77 38-106 115l-57 212c-22 77-45 115-69 115c-6 0-24-11-56-34l-34 44c35 31 70 62 104 93c47 40 83 62 106 64c56 5 90-33 103-114c14-88 23-142 29-163c16-73 33-109 52-109c15 0 38 23 68 70c30 47 46 83 48 107c4 41-12 61-48 61c-17 0-35-3-53-11c34 111 98 167 193 167z" horiz-adv-x="1000" />
<glyph glyph-name="github-text" unicode="&#xe806;" d="m527 850c-21 0-39-8-54-24c-15-16-22-35-22-58c0-22 7-41 22-57c15-16 33-24 54-24c20 0 38 8 53 24c15 16 22 35 22 57c0 23-7 42-22 58c-15 16-33 24-53 24z m164-156c2-13 3-29 3-49l0-43l-53 0l0-106c15 2 27 3 37 3l16-1l0-2l-1 0l0-196c0-61 8-106 23-134c20-38 57-57 110-57c38 0 71 7 98 22l0 109c-18-12-39-19-61-19c-33 0-49 25-49 74l0 203l47 0c9 0 19 0 28-1c10-1 17-1 21-1l0 106l-96 0l0 45c0 17 2 33 4 47l-127 0l0 0z m-501-87c-49 0-92-16-128-49c-37-35-55-79-55-131c0-35 10-68 30-98c18-29 39-47 63-55l0-2c-24-10-35-36-35-77c0-31 12-54 37-70l0-2c-68-23-102-64-102-126c0-53 23-92 68-117c36-19 81-29 136-29c135 0 203 56 203 169c0 71-52 114-157 130c-24 4-42 13-54 27c-10 9-14 19-14 28c0 27 14 43 43 47c45 7 81 27 109 62c28 34 42 75 42 122c0 14-3 30-9 47c19 4 34 8 44 12l0 112c-46-17-86-26-121-26c-31 18-64 26-100 26l0 0z m275-5c1-13 2-37 2-71l0-340c0-35-1-60-2-74l123 0c-1 16-2 43-2 80l0 336c0 32 1 55 2 69l-123 0z m-270-95c22 0 39-9 51-25c10-16 15-34 15-55c0-51-22-77-66-77c-46 0-69 26-69 76c0 54 23 81 69 81z m7-445c62 0 92-19 92-56c0-39-28-59-84-59c-64 0-96 19-96 57c0 39 29 58 88 58l0 0z" horiz-adv-x="924" />
<glyph glyph-name="github" unicode="&#xe82b;" d="m1079 851c-33 1-110-11-239-97c-70 18-145 26-219 26c-83 0-166-10-243-31c-185 126-267 100-267 100c-53-133-20-232-10-256c-63-68-101-154-101-260c0-80 9-151 31-214c2-4 1-3 3-8c5-12 11-25 17-37c2-4 4-8 4-8c62-116 185-191 404-215l331 0c233 23 345 98 397 216l3 7c5 12 9 24 21 66c12 41 17 113 17 193c0 115-43 207-113 276c12 40 28 128-17 240c0 0-6 2-19 2z m-261-421c54 0 100-9 135-46l0 0c43-45 69-100 69-159c0-277-178-285-398-285c-219 0-397 39-397 285c0 58 25 113 68 158c71 76 192 36 329 36c71 0 137 11 194 11z m-408-82c-46 0-83-61-83-137c0-77 37-138 83-138c45 0 82 61 82 138c0 76-37 137-82 137z m443 0c-45 0-82-61-82-137c0-77 37-138 82-138c46 0 83 61 83 138c0 76-37 137-83 137z" horiz-adv-x="1228" />
<glyph glyph-name="skype-1" unicode="&#xe81c;" d="m958 278c4 23 6 47 6 72c0 256-208 464-464 464c-25 0-49-2-72-6c-43 27-94 42-148 42c-154 0-280-125-280-280c0-54 15-105 42-148c-4-23-6-47-6-72c0-256 208-464 464-464c25 0 49 2 72 6c43-27 94-42 148-42c155 0 280 125 280 280c0 54-15 105-42 148z m-238-139c-19-28-48-50-86-66c-38-16-82-24-134-24c-61 0-113 11-153 33c-29 15-52 36-70 62c-18 27-27 52-27 77c0 15 6 28 17 38c11 11 25 16 42 16c14 0 25-4 35-12c10-9 18-21 24-36c8-19 17-34 26-46c9-12 21-22 38-30c16-8 38-12 65-12c37 0 67 8 90 24c23 16 34 35 34 59c0 19-6 34-18 45c-13 12-29 21-48 27c-20 6-47 13-80 20c-45 10-83 21-113 34c-31 14-55 31-73 54c-18 23-27 52-27 85c0 33 10 61 29 86c19 25 46 45 82 58c35 13 77 20 126 20c38 0 71-4 99-13c29-9 52-21 71-36c18-14 32-30 41-46c8-17 13-33 13-48c0-15-6-28-17-39c-11-12-25-18-41-18c-15 0-27 4-35 11c-7 7-16 18-24 33c-12 22-25 39-41 51c-15 12-40 18-75 18c-32 0-58-7-78-20c-19-13-29-28-29-46c0-11 4-21 10-29c7-8 16-15 27-21c12-6 24-10 36-14c12-3 32-8 60-15c36-7 67-16 96-25c29-9 53-21 73-34c20-13 36-30 48-51c11-20 17-45 17-74c0-36-10-68-30-96z" horiz-adv-x="1000" />
<glyph glyph-name="icq" unicode="&#xe808;" d="m355 823c-31 7-57 4-84-10c-29-18-46-47-53-86c-7-41 0-80 21-120l10-14l-34 11c-42 10-82 4-121-17c-41-21-66-50-83-91c-16-40-15-78 5-113c9-16 21-28 33-37c17-17 38-27 63-31l10-3l-21-18c-20-17-31-38-38-59c-7-26-4-51 10-75c7-11 14-21 25-28c11-10 25-17 42-18c31-7 64-7 99 4l-25-42l-7-19c-15-45-10-84 11-125c10-16 21-30 32-43c17-15 38-25 64-32c42-11 84-10 125 11c40 21 65 55 78 98l1 8c27-30 52-49 80-56c29-9 57-7 82 10c24 14 41 38 50 67c7 31 7 62 0 97c14-9 28-16 45-21c45-14 84-12 124 9c38 21 63 55 76 99c11 42 8 83-13 122l-7 11c-11 17-22 34-39 46c-14 9-31 16-47 24c44 21 75 50 89 88c10 31 7 57-7 82l0 3c-17 28-40 46-75 56c-21 5-45 5-66 3l-47-10l16 36c14 45 10 88-14 129l-4 7c-22 36-53 57-95 68c-44 11-84 7-124-14c-39-21-68-54-80-96l0-3l-2-10l-5 10l-14 26c-23 35-51 56-86 66z m359-85c7-14 11-31 11-49l-4-31c-5-16-13-30-21-42l-127-156c-13 10-27 17-41 24l-14 160l-1 56l1 14c7 28 27 50 52 64c26 14 54 17 81 7c29-7 50-23 63-47z m-437-28c1 25 11 42 28 52c9 7 21 7 33 2c25-8 46-26 63-61c7-14 14-28 17-45l28-167l-21-7l-125 137l-7 14c-12 26-19 50-16 75z m-76-165l38-15l124-91c-11-14-18-28-22-42l-204-25l-14 2c-25 5-42 16-53 37c-11 21-11 42-3 64c10 26 28 47 55 59c25 14 51 18 79 11z m134-230l10-28l4-10c-21-18-37-35-54-51l-42-35l-11-7c-27-13-50-17-74-14c-21 1-38 8-45 21l-4 16l3 12c7 21 25 43 58 58c17 7 31 14 42 17l113 21z m440 229c25 11 49 14 74 11c24-3 41-14 50-31l5-18l-2-15c-10-25-31-45-67-60c-14-7-29-10-46-13l-174-21l-2 10l-3 4l5 7l143 119l17 7z m-360-134c17 15 40 25 66 25c26 0 50-10 65-25c20-20 29-41 29-67s-9-49-29-66c-18-18-39-28-65-28c-26 0-49 10-66 28c-18 17-28 41-28 66s10 47 28 67z m33-205c2-48 7-98 14-153l0-57l-2-14c-10-25-26-46-52-58c-25-14-52-17-77-10c-29 7-50 24-61 47c-7 14-13 31-13 48l7 32c3 14 10 28 22 40l118 141c14-7 28-14 44-16z m108 19l59-61l37-45l7-14c13-24 20-47 17-74c-3-25-11-43-28-50c-10-7-21-7-33-6c-26 7-48 28-63 62l-17 47l-21 122l24 9l18 10z m64 87l159 14l56 1l14-1c22-7 41-20 53-41c14-15 21-36 21-60l-4-29c-7-28-24-49-48-60c-26-14-51-17-79-7c-17 4-29 11-38 22l-148 123l9 21l5 17z" horiz-adv-x="981" />
<glyph glyph-name="jabber" unicode="&#xe809;" d="m225 850c-4 0-9 0-13-1l0 0c-18-2-37-2-55-5c-35-5-68-16-101-29c-12-5-24-10-35-16c-4-2-11-3-14-7c-2-1-2-5-2-8c-1-6-2-13-2-19c-3-26-4-52-1-77c1-8 4-23 14-24c15-3 27 16 35 27c17 24 37 47 66 58c34 13 73 16 109 18c102 7 212-11 287-86c10-11 20-22 29-34c33-48 51-103 59-161c4-27 7-54 1-81c-11-47-39-88-71-123c-23-23-47-45-73-64c-15-11-31-20-45-32c-15-14-28-31-38-49c-27-50-34-109-26-164c2-11 3-22 6-33c0-4 1-9 3-12c4-5 15-8 21-8c6-1 10 4 12 10c3 10 1 21 0 31c-4 20-7 40-6 61c2 38 17 74 43 101c27 28 63 44 94 68c61 47 116 111 137 187c8 27 10 56 7 84c-5 35-18 71-30 104c-37 102-101 198-202 245c-40 18-82 26-126 32c-20 3-40 5-61 6c-7 0-15 1-22 1z m-53-421c-10-1-20-3-28-8c-13-8-20-22-24-36c-8-28-5-59 1-87c2-9 3-18 6-27c1-3 1-8 3-10c4-5 13-6 18-5c16 2 12 29 12 40c-2 27-9 52-2 79c3 11 9 23 21 28c10 4 20-1 24-11c7-16 5-34 9-51c1-6 3-11 6-17c0-1 1-4 3-4c6 0 13 9 17 12c13 11 26 22 40 30c7 3 18 9 25 3c2-2 4-4 5-5c8-13 0-23-5-36c-7-16-14-31-24-45c-9-13-21-23-28-37c-4-8-7-18-5-27c2-8 8-13 16-11c6 1 10 7 13 11c6 9 12 17 18 26c11 16 25 32 35 49c12 21 18 45 18 69c0 20-8 50-31 55c-4 0-9 0-13-1c-5-1-11-3-16-5c-13-6-24-16-34-26c-6-7-11-15-18-21c0 15-3 30-12 43c-11 16-30 25-50 25z m-115-237c-1 0-2 0-3 0c-20-3-26-19-22-37c4-22 22-40 40-54c46-35 105-54 162-51c22 1 47 5 67 14c11 5 23 23 8 31c-2 1-5 2-7 2c-7 1-14-1-20-3c-11-3-22-6-33-8c-34-6-71 2-98 22c-23 16-41 37-58 59c-10 12-19 26-36 25z m-21-111c-3 0-6 0-8-1c-5 0-11 0-15-3c-9-7 1-20 5-26c14-18 32-32 50-45c50-35 107-56 168-60c18-1 35 0 53 3c6 1 14 2 20 4c17 8 12 39-3 46c-7 4-17-1-24-1c-16-3-32-3-48-3c-42 2-87 15-124 35c-15 8-28 18-40 29c-8 7-16 18-26 21c-2 1-5 1-8 1z m3-95c0 0-1 0-1 0c-7-1-13-4-17-10c-4-3-7-7-8-11c-11-26 17-50 36-62c21-13 43-23 67-31c53-19 115-31 169-14c17 5 33 14 44 26c7 7 12 18 0 22c-8 3-17-4-23-6c-16-7-32-11-48-13c-22-3-42 2-63 7c-18 5-37 9-54 16c-15 5-30 12-43 21c-4 3-8 5-11 9c-11 11-19 25-30 36c-4 5-11 10-18 10z" horiz-adv-x="667" />
<glyph glyph-name="linkedin" unicode="&#xe80b;" d="m238-150l0 675l-225 0l0-675l225 0z m-113 767c79 0 127 52 127 116c-1 67-48 117-125 117c-77 0-127-50-127-117c0-64 49-116 124-116l1 0z m237-767l224 0l0 377c0 20 1 40 7 55c17 40 53 82 115 82c82 0 114-62 114-153l0-361l224 0l0 387c0 207-110 304-258 304c-121 0-174-68-204-114l2 0l0 98l-224 0c3-64 0-675 0-675z" horiz-adv-x="1046" />
<glyph glyph-name="linkedin-rect" unicode="&#xe80c;" d="m196 850c-108 0-196-88-196-196l0-608c0-108 88-196 196-196l608 0c107 0 196 88 196 196l0 608c0 108-89 196-196 196l-608 0z m49-165c52 0 84-34 85-79c0-43-33-78-86-78l-1 0c-50 0-83 35-83 78c0 45 34 79 85 79z m445-208c100 0 174-65 174-205l0-260l-151 0l0 243c0 61-22 102-76 102c-42 0-67-28-78-55c-4-10-5-23-5-37l0-253l-151 0s2 411 0 454l151 0l0-64c20 31 56 75 136 75z m-521-11l151 0l0-454l-151 0l0 454z" horiz-adv-x="1000" />
<glyph glyph-name="win8" unicode="&#xe828;" d="m986 850l-549-80l0-398l549 0l0 478z m-587-86l-399-58l0-334l399 0l0 392z m-399-430l0-339l399-58l0 397l-399 0z m437 0l0-403l549-81l0 484l-549 0z" horiz-adv-x="986" />
<glyph glyph-name="mail-5" unicode="&#xe813;" d="m0-29l324 342l176-100l176 100l324-342l-1000 0z m0 114l0 414l254-147z m0 503l0 141l1000 0l0-141l-500-285z m746-236l254 147l0-414z" horiz-adv-x="1000" />
<glyph glyph-name="phone-2" unicode="&#xe819;" d="m0 615q0 50 28 76l138 138q45 37 77-13l113-211q18-39-14-71l-51-52q-5-6-5-14q25-98 132-195l31-30t36-34t34-26t41-25t40-14q20-6 27 2l61 60q39 30 72 12l203-121q22-14 25-37t-13-39l-141-139q-27-27-74-27q-140 4-318 121q-258 185-375 406q-72 151-67 233z" horiz-adv-x="988" />
<glyph glyph-name="bold" unicode="&#xe839;" d="m0-60l125 0l0 820l-125 0l0 80l582 0q180 0 270-60t89-182q0-88-62-139t-184-64q147-14 226-79t79-173q0-145-111-215q-110-68-344-68l-545 0l0 80z m379 0l94 0q125 0 185 49t61 154q0 105-62 157t-184 52l-94 0l0-412z m0 492l86 0q113 0 168 39q55 43 55 127q0 86-55 125q-53 37-168 37l-86 0l0-328z" horiz-adv-x="1000" />
<glyph glyph-name="italic" unicode="&#xe83a;" d="m0-150l14 70l127 0l172 858l-127 0l13 72l391 0l-14-72l-127 0l-172-858l127 0l-13-70l-391 0z" horiz-adv-x="590" />
<glyph glyph-name="text-height" unicode="&#xe83d;" d="m0 499l6 177l570 0l4-177l-60 0q0 91-20 107t-137 16l0-491q0-45 11-51t73-7l0-49l-314 0l0 49q62-2 73 6t11 52l0 491q-117 0-136-16t-18-107l-63 0z m652-475l118 0l0 652l-118 0l174 174l174-174l-115 0l0-652l115 0l-174-174z" horiz-adv-x="1000" />
<glyph glyph-name="text-width" unicode="&#xe82f;" d="m0 24l174 174l0-117l652 0l0 117l174-174l-174-174l0 115l-652 0l0-115z m211 648l4 178l570 0l4-178l-60 0q0 92-20 107t-137 14l0-488q0-45 11-53t75-7l0-49l-316 0l0 49q64 0 75 6t11 54l0 488q-117 0-137-14t-19-107l-61 0z" horiz-adv-x="1000" />
<glyph glyph-name="align-left" unicode="&#xe83e;" d="m0-89l0 156l1000 0l0-156l-1000 0z m0 240l0 156l609 0l0-156l-609 0z m0 242l0 156l789 0l0-156l-789 0z m0 240l0 157l516 0l0-157l-516 0z" horiz-adv-x="1000" />
<glyph glyph-name="align-center" unicode="&#xe83f;" d="m0-89l0 156l1000 0l0-156l-1000 0z m106 482l0 156l789 0l0-156l-789 0z m89-242l0 156l610 0l0-156l-610 0z m47 482l0 157l516 0l0-157l-516 0z" horiz-adv-x="1000" />
<glyph glyph-name="align-right" unicode="&#xe840;" d="m0-89l0 156l1000 0l0-156l-1000 0z m211 482l0 156l789 0l0-156l-789 0z m180-242l0 156l609 0l0-156l-609 0z m93 482l0 157l516 0l0-157l-516 0z" horiz-adv-x="1000" />
<glyph glyph-name="align-justify" unicode="&#xe841;" d="m0-89l0 156l1000 0l0-156l-1000 0z m0 240l0 156l1000 0l0-156l-1000 0z m0 242l0 156l1000 0l0-156l-1000 0z m0 240l0 157l1000 0l0-157l-1000 0z" horiz-adv-x="1000" />
<glyph glyph-name="skype-3" unicode="&#xe81d;" d="m2 609q12 89 75 153q68 65 160 74t170-37q111 18 219-17t185-112q133-138 135-324q0-51-10-100q27-56 27-119q-4-111-78-187q-84-78-189-78q-69 0-125 31q-139-23-264 29q-172 76-246 244q-53 141-25 272q-45 82-34 171z m211-394q4-49 35-89t71-61q166-69 308-10q57 24 91 70t34 104q2 105-105 154q-47 20-90 31q-15 4-56 13t-63 15q-25 8-49 24t-23 38q4 36 37 49t72 16q74 2 117-71q16-25 30-37t37-11q27 2 47 20t19 44q-4 53-42 88t-93 53q-134 33-242-8q-55-20-87-62t-34-92q2-45 23-80t58-54t70-31t78-21q54-12 86-21q66-24 66-71q0-35-35-58q-92-45-158-12q-41 19-67 76q-23 53-66 55q-28-2-47-20t-22-41z" horiz-adv-x="963" />
<glyph glyph-name="wordpress" unicode="&#xe829;" d="m0 350q4 209 151 354t349 146q207-4 353-151t147-349q-4-207-151-353t-349-147q-209 4-353 151t-147 349z m35 0q2-193 140-328t325-137q193 4 328 141t137 324q-4 193-141 328t-324 137q-193-4-329-141t-136-324z m41-30q-8 108 33 200l205-553q-109 55-173 155q-57 89-65 198z m69 264q62 90 157 140t198 52q168-4 287-111q-47 1-70-40q-4-25-6-39t7-35t14-33t18-31l18-30q33-62 7-144l-62-219l-154 459q43 4 46 4q12 4 15 14t-7 15q-6 6-11 6l-94-8l-70 0q-4 0-27 4t-37 2t-17-13q-3-16 14-20q33-4 47-6l68-179l-93-278l-157 459q43 4 49 4q18 2 16 20q-4 15-20 15q-70-10-136-8z m234-642l129 367l133-359q-131-45-262-8z m334 39q6 19 21 62l120 346q15 49 23 111q2 28-2 49q76-162 33-312q-51-172-195-256z" horiz-adv-x="1000" />
<glyph glyph-name="thumbs-up" unicode="&#xe823;" d="m0-56l0 500q0 39 27 66t67 28l94 0q32 0 60-24q12 6 33 16q123 64 125 226q0 39 28 67t66 27q57 0 105-64t49-147q0-66-8-103q237-6 266-14q43-12 66-43t22-63l0-23q-2-39-27-68q17-34 11-75q-7-54-41-86q16-37 0-84q-17-58-52-82q7-27 0-54q-6-18-14-34q-33-60-111-60l-172 0q-92 0-186 21q-92 22-127 30l-2 0q0 2-3 2l-4 0l0 2q-28-55-84-55l-94 0q-39 0-67 27t-27 67z m63 0q0-14 8-23t23-9l94 0q13 0 22 9t9 23l0 500q0 13-9 22t-22 9l-94 0q-14 0-23-9t-8-22l0-500z m31 47q0 19 13 33t34 14t33-14t14-33t-14-34t-33-13t-34 13t-13 34z m31 0q0-16 16-16t15 16t-15 15t-16-15z m125 3q0-23 27-27q22-6 145-35q88-20 172-20l172 0q41 0 56 28q6 15 8 23q6 12-2 28t-29 15l-49 0q-16 0-16 16t16 16l51 0q31 0 49 10t22 20t11 30q21 65-39 65l-63 0q-15 0-15 15t15 16l74 0q57 0 69 66q2 22-9 40t-42 19l-61 0q-15 0-15 15t15 16l63 0q61 0 62 45l0 21q0 38-37 47q-45 12-337 12q19 59 24 84t5 80q0 57-32 103t-60 45q-31 0-31-31q-2-92-46-173t-142-122q-2 0-4-1l-2-1q-25-8-25-33l0-432z" horiz-adv-x="1000" />
<glyph glyph-name="pencil" unicode="&#xe834;" d="m0-41q0 4 1 8t1 8t1 8t1 6l0 2l74 267q10 31 31 53l325 324l0 2l2 2l150 152q60 59 146 59q106 0 186-80q74-74 81-171t-58-161l-476-481q-24-23-55-31l-263-70l-3-1q-3-1-7-2t-9-1t-10-1t-9-1q-45 0-77 32t-32 77z m63 0q0-19 13-33t33-14q6 0 22 4l115 32q4 58-43 105q-45 45-105 43l-32-119q-3-14-3-18z m44 168q67-2 118-52t52-120l116 30l11 6q41 47 34 115t-61 121q-51 49-115 59t-112-24q-7-10-11-21z m131 225q45-2 90-20l295 295q-88 22-144-33z m119-35q38-20 65-45q21-22 41-55l297 299q-16 31-39 55q-30 29-67 45z m122-129q17-41 21-82l0-24l242 245l0 2q61 60 31 156z m101 508q106 0 186-80q70-73 78-166l0-22l52 55q45 45 41 111q-5 74-62 131q-63 62-143 62q-60 0-101-41z" horiz-adv-x="1000" />
<glyph glyph-name="trash" unicode="&#xe833;" d="m0 569l0 68q2 37 29 63t65 25l94 0l0 31q0 39 27 67t66 27l313 0q39 0 66-27t28-67l0-31l93 0q37 0 65-25t29-63l0-68q0-26-19-44t-44-19l0-531q0-53-36-89t-88-36l-500 0q-53 0-89 36t-36 89l0 531q-26 0-44 19t-19 44z m63 0l749 0l0 62q0 14-8 23t-23 8l-687 0q-14 0-23-8t-8-23l0-62z m62-594q0-25 19-44t44-19l500 0q25 0 43 19t19 44l0 531l-625 0l0-531z m63 31l0 407q0 13 8 22t23 9l62 0q14 0 23-9t9-22l0-407q0-13-9-22t-23-9l-62 0q-14 0-23 9t-8 22z m31 0l62 0l0 407l-62 0l0-407z m31 719l375 0l0 31q0 14-9 23t-22 8l-313 0q-13 0-22-8t-9-23l0-31z m125-719l0 407q0 13 9 22t22 9l63 0q13 0 22-9t9-22l0-407q0-13-9-22t-22-9l-63 0q-13 0-22 9t-9 22z m31 0l63 0l0 407l-63 0l0-407z m157 0l0 407q0 13 8 22t23 9l62 0q14 0 23-9t9-22l0-407q0-13-9-22t-23-9l-62 0q-14 0-23 9t-8 22z m31 0l62 0l0 407l-62 0l0-407z" horiz-adv-x="875" />
<glyph glyph-name="params" unicode="&#xe836;" d="m0 538q0 76 63 124l0 94q0 39 27 67t66 27t67-27t27-67l0-94q63-48 63-124t-63-125l0-469q0-39-27-67t-67-27t-66 27t-27 67l0 469q-63 48-63 125z m63 0q0-12 3-26l2-6q4-13 12-23q8-12 20-21t25-12q16-6 31-6t32 6q13 4 25 13q12 8 19 20q8 10 12 23l2 6q4 14 4 26t-4 25q-2 4-2 6q-4 13-12 23q-7 12-19 21t-25 12q-16 6-32 6t-31-6q-14-4-25-13q-10-8-20-20q-8-10-12-23l-2-6q-3-14-3-26z m62-594q0-14 9-23t22-9t23 9t9 23l0 441q-16-4-32-4t-31 4l0-441z m0 746q16 4 31 4t32-4l0 66q0 14-9 23t-23 8t-22-8t-9-23l0-66z m219-527q0 76 62 125l0 468q0 39 28 67t66 27t66-27t28-67l0-468q62-49 62-125t-62-125l0-94q0-39-28-67t-66-27t-66 27t-28 67l0 94q-62 48-62 125z m62 0q0-12 4-26l2-6q4-13 12-23q8-12 19-21t26-12q15-6 31-6t31 6q14 4 26 13q11 8 19 20q8 10 12 23q0 2 2 6q4 14 4 26t-4 25l-2 6q-4 13-12 23q-8 12-19 20q-12 10-26 13q-15 6-31 6t-31-6q-14-3-26-13q-9-8-19-20q-8-10-12-23l-2-6q-4-14-4-25z m63-219q0-14 9-23t22-9t22 9t9 23l0 66q-15-4-31-4t-31 4l0-66z m0 371q15 4 31 4t31-4l0 441q0 14-9 23t-22 8t-22-8t-9-23l0-441z m219 223q0 76 62 124l0 94q0 39 27 67t67 27t66-27t27-67l0-94q63-48 63-124t-63-125l0-469q0-39-27-67t-66-27t-67 27t-27 67l0 469q-62 48-62 125z m62 0q0-12 4-26l2-6q4-13 12-23q7-12 19-21t25-12q16-6 32-6t31 6q14 4 25 13q12 8 20 20q8 10 12 23q0 2 2 6q3 14 3 26t-3 25l-2 6q-4 13-12 23q-8 12-20 20q-11 9-25 13q-16 6-31 6t-32-6q-13-4-25-13q-12-8-19-20q-8-10-12-23l-2-6q-4-14-4-26z m62-594q0-14 9-23t23-9t22 9t9 23l0 441q-16-4-31-4t-32 4l0-441z m0 746q16 4 32 4t31-4l0 66q0 14-9 23t-22 8t-23-8t-9-23l0-66z" horiz-adv-x="1000" />
<glyph glyph-name="sound" unicode="&#xe822;" d="m0 163q0 39 27 66l98 98l0 429q0 30 16 53t43 33q15 8 35 8q39 0 66-27l688-688q45-45 19-101q-10-28-33-43t-53-16l-429 0l-98-98q-27-27-66-27t-67 27l-219 219q-27 27-27 67z m63 0q0-14 9-22l219-219q8-10 22-10t21 10l98 98l2 0l-264 264l0-2l-98-98q-9-8-9-21z m123 150l277-277q12 2 14 2l377 0l-666 666l0-377q0-2-2-14z m2 433l708-708l10 0q22 0 30 19t-8 33l-688 688q-8 9-21 9q-6 0-12-1q-19-8-19-30l0-10z m343 73q0 13 9 22t23 9q181 0 309-128t128-309q0-14-9-23t-22-9t-23 9t-9 23q0 154-110 264t-264 110q-14 0-23 9t-9 23z m16-110q0 16 16 16q128 0 220-92t92-220q0-16-16-16t-15 16q0 117-82 199t-199 82q-16 0-16 15z" horiz-adv-x="1001" />
<glyph glyph-name="lightbulb" unicode="&#xe80a;" d="m0 506q0 143 101 243t243 101t243-101t101-243q0-55-30-121t-71-141t-56-115q-15-39-31-94t-24-82t-27-53t-42-39t-63-11t-64 11t-41 39t-26 53t-25 82t-32 94q-13 43-55 116t-72 140t-29 121z m63 0q0-64 82-213q37-64 52-99l293 0q16 35 53 99q82 151 82 213q0 117-82 199t-199 82t-199-82t-82-199z m93 0q0 78 55 133t133 55q15 0 15-16t-15-16q-65 0-111-45t-45-111q0-15-16-15t-16 15z m67-375q11-33 19-60l213 27q2 12 10 33l-242 0z m29-90q10-35 18-60l154 19q6 16 12 38q2 5 4 15t3 12z m29-89q12-26 25-33t38-7q29 0 43 10t27 45z" horiz-adv-x="687" />
<glyph glyph-name="mobile" unicode="&#xe816;" d="m0-56l0 812q0 39 27 67t67 27l500 0q39 0 66-27t28-67l0-812q0-39-28-67t-66-27l-500 0q-39 0-67 27t-27 67z m63 0q0-14 8-23t23-9l500 0q13 0 22 9t9 23l0 62l-562 0l0-62z m0 94l562 0l0 624l-562 0l0-624z m0 656l562 0l0 62q0 14-9 23t-22 8l-500 0q-14 0-23-8t-8-23l0-62z m218 47q0 15 16 15l94 0q15 0 15-15t-15-16l-94 0q-16 0-16 16z m32-782q0 16 15 16l31 0q16 0 16-16t-16-15l-31 0q-15 0-15 15z" horiz-adv-x="687" />
<glyph glyph-name="beaker" unicode="&#xe801;" d="m2 354q10 49 55 68l424 170q-12 20-12 41q0 33 23 57l43 43q24 23 56 23t56-23l240-240q23-24 23-56t-23-56l-43-45q-24-21-55-21q-23 0-43 12l-168-418q-17-47-68-57q-8-2-18-2l-4 0q-37 0-62 27l-398 393q-36 35-26 84z m62-11q-3-16 8-28l397-393q10-10 21-10l8 0q16 4 24 20l146 371q-58 61-123 85t-146 33t-123 23l-194-78q-15-6-18-23z m186-24q0 25 19 44t44 18t44-18t18-44t-18-44t-44-19t-44 19t-19 44z m31 0q0-14 9-23t23-8t22 8t9 23t-9 22t-22 9t-23-9t-9-22z m43 144q30-6 80-13q59-6 93-13t87-33t98-70l41 102l55-55q11-11 21 0l45 45q12 10 0 22l-242 242q-10 10-22 0l-45-45q-9-12 0-22l55-54z m51-332q0 14 9 23t22 9t23-9t9-23t-9-22t-23-9t-22 9t-9 22z m63 141q0 33 22 56t56 22t55-22t23-56t-23-56t-55-22t-56 22t-22 56z m31 0q0-20 14-33t33-14t33 14t14 33t-14 33t-33 14t-33-14t-14-33z m375 500q0 33 22 56t56 22t56-22t22-56t-22-56t-56-22t-56 22t-22 56z m31-172q0 14 9 22t22 9t23-9t9-22t-9-22t-23-9t-22 9t-9 22z m0 172q0-20 14-33t33-14t33 14t14 33t-14 33t-33 14t-33-14t-14-33z" horiz-adv-x="1000" />
<glyph glyph-name="mail-4" unicode="&#xe814;" d="m105 845h1152q43 0 74-31t31-74v-785q0-44-31-75t-74-30h-1152q-43 0-74 30t-31 75v785q0 43 31 74t74 31z m69-157l507-423l507 423h-1014z m-17-681h1048v558l-494-412h-61l-493 412v-558z" horiz-adv-x="1360" />
<glyph glyph-name="cancel" unicode="&#xe837;" d="m654 349l346-346l-154-154l-346 346l-346-346l-154 154l346 346l-346 346l154 154l346-346l346 346l154-154z" horiz-adv-x="1000" />
<glyph glyph-name="plus-circle" unicode="&#xe82c;" d="m1000 349q0-136-67-251t-182-182t-251-67t-251 67t-182 182t-67 251t67 251t182 182t251 67t251-67t182-182t67-251z m-440-58h235v118h-235v235h-118v-235h-236v-118h236v-236h118v236z" horiz-adv-x="1000" />
<glyph glyph-name="location-1" unicode="&#xe80d;" d="m586 556q0-7-1-21t-18-71t-43-130t-88-202t-143-283q-82 153-142 282t-88 204t-43 128t-18 73l-2 20q0 121 86 207t207 86t207-86t86-207z m-207 0q0 36-25 61t-61 25t-61-25t-25-61t25-61t61-25t61 25t25 61z" horiz-adv-x="586" />
<glyph glyph-name="twitter" unicode="&#xe824;" d="m749-25c0-34-13-64-37-88c-25-25-54-37-89-37l-248 0c-103 0-192 36-265 110c-73 73-110 161-110 264l0 501c0 35 12 65 37 89c24 24 54 36 89 36c34 0 64-12 88-37c25-24 37-54 37-88l0-181l353 0c32 0 60-12 83-35c22-22 34-49 34-81c0-32-12-59-34-82c-23-23-51-34-82-34l-354 0l0-88c0-34 12-64 36-88c24-24 54-36 88-36l248 0c35 0 64-12 89-37c24-24 37-54 37-88" horiz-adv-x="749" />
</font>
</defs>
</svg>